module gitlab.com/mhilmi1117/mailhog

go 1.15

require (
	github.com/bmizerany/assert v0.0.0-20160611221934-b7ed37b82869 // indirect
	github.com/gorilla/context v1.1.1 // indirect
	github.com/gorilla/mux v1.8.0 // indirect
	github.com/gorilla/pat v1.0.1
	github.com/gorilla/websocket v1.4.2 // indirect
	github.com/ian-kent/envconf v0.0.0-20141026121121-c19809918c02
	github.com/ian-kent/go-log v0.0.0-20160113211217-5731446c36ab
	github.com/ian-kent/goose v0.0.0-20141221090059-c3541ea826ad // indirect
	github.com/ian-kent/linkio v0.0.0-20170807205755-97566b872887 // indirect
	github.com/kr/pretty v0.2.1 // indirect
	github.com/mailhog/data v1.0.1 // indirect
	github.com/mailhog/http v1.0.1
	github.com/mailhog/mhsendmail v0.2.0
	github.com/mailhog/smtp v1.0.1 // indirect
	github.com/mailhog/storage v1.0.1 // indirect
	github.com/ogier/pflag v0.0.1 // indirect
	github.com/smartystreets/goconvey v1.6.4 // indirect
	github.com/stretchr/testify v1.7.0 // indirect
	github.com/t-k/fluent-logger-golang v1.0.0 // indirect
	github.com/tinylib/msgp v1.1.5 // indirect
	gitlab.com/mhilmi1117/mail-server v1.0.0
	gitlab.com/mhilmi1117/mail-ui v1.0.0
	golang.org/x/crypto v0.0.0-20210513164829-c07d793c2f9a
	gopkg.in/mgo.v2 v2.0.0-20190816093944-a6b53ec6cb22 // indirect
	gopkg.in/yaml.v2 v2.4.0 // indirect
)
